0102624550
2500289055
0107492996
0311954866
0106243764
6001009486
5801219988
0400485976
0400485976
0313360096
0309968572
0313362417
0311273962
0500570840
0304852542
6100316576
3200148175
3200148175
0310833523
0313499027
0103144980
0500584346
0102144716
6001510653
0310978575
0106690522
0104051055
0103573820
0106786464
0106579080
0106684448
4300421662
0313114372
0304465487
0305709908
0310351960
0103063731
0800829237
0106103277
0311165389
0304073313-002
1401723336
0306405500
0313028010
2300857416
2901085394
0103737821
0107499991
0107479459
0313887333
2700132397-011
5701583969-002
1001099522
2700641884
3702311530
3701698765
0311977503
0309034004
5900910258
5701736982
0310366540
0107476144
0313903190
0307481014
0307034129
0310001772
0105933370